Appendix
…
Exploratory analyzes

Species abundances

The total number of trees is 164070.

The most abundant species are

the_trees %>% 
  group_by(SpeciesName) %>% 
  summarise(Number=n(), .groups='drop') %>% 
  arrange(desc(Number))

## # A tibble: 652 x 2
##    SpeciesName            Number
##    <fct>                   <int>
##  1 Platanus x hispanica    33360
##  2 Aesculus hippocastanum  15466
##  3 Sophora japonica        10674
##  4 Tilia tomentosa          7006
##  5 Acer platanoides         4421
##  6 Acer pseudoplatanus      4347
##  7 Aesculus x carnea        3954
##  8 Celtis australis         3595
##  9 Tilia x europaea         3561
## 10 Platanus occidentalis    3192
## # ... with 642 more rows
…
